…
  `Lifetime Post Total Reach` = col_double(),
  `Lifetime Post Total Impressions` = col_double(),
  `Lifetime Engaged Users` = col_double(),
  `Lifetime Post Consumers` = col_double(),
  `Lifetime Post Consumptions` = col_double(),
  `Lifetime Post Impressions by people who have liked your Page` = col_double(),
  `Lifetime Post reach by people who like your Page` = col_double(),
  `Lifetime People who have liked your Page and engaged with your post` = col_double(),
  comment = col_double(),
  like = col_double(),
  share = col_double(),
  `Total Interactions` = col_double()
)
> dataset_Facebook
# A tibble: 500 x 19
   `Page total lik… Type  Category `Post Month` `Post Weekday` `Post Hour`  Paid
              <dbl> <chr>    <dbl>        <dbl>          <dbl>       <dbl> <dbl>
 1           139441 Photo        2           12              4           3     0
 2           139441 Stat…        2           12              3          10     0
 3           139441 Photo        3           12              3           3     0
 4           139441 Photo        2           12              2          10     1
 5           139441 Photo        2           12              2           3     0
 6           139441 Stat…        2           12              1           9     0
 7           139441 Photo        3           12              1           3     1
 8           139441 Photo        3           12              7           9     1
 9           139441 Stat…        2           12              7           3     0
10           139441 Photo        3           12              6          10     0
# … with 490 more rows, and 12 more variables: `Lifetime Post Total Reach` <dbl>,
#   `Lifetime Post Total Impressions` <dbl>, `Lifetime Engaged Users` <dbl>,
#   `Lifetime Post Consumers` <dbl>, `Lifetime Post Consumptions` <dbl>, `Lifetime
#   Post Impressions by people who have liked your Page` <dbl>, `Lifetime Post reach
#   by people who like your Page` <dbl>, `Lifetime People who have liked your Page
#   and engaged with your post` <dbl>, comment <dbl>, like <dbl>, share <dbl>, `Total
#   Interactions` <dbl>
…
# … with 12 more variables: `Lifetime Post Total Reach` <dbl>, `Lifetime Post Total
#   Impressions` <dbl>, `Lifetime Engaged Users` <dbl>, `Lifetime Post
#   Consumers` <dbl>, `Lifetime Post Consumptions` <dbl>, `Lifetime Post Impressions
#   by people who have liked your Page` <dbl>, `Lifetime Post reach by people who
#   like your Page` <dbl>, `Lifetime People who have liked your Page and engaged with
#   your post` <dbl>, comment <dbl>, like <dbl>, share <dbl>, `Total
#   Interactions` <dbl>
> # select variables 
> myvars <- c("Type", "Category", "Paid")
> new_data <- dataset_Facebook[myvars] 
> View(new_data)
> var1 <- dataset_Facebook[c(1,5:10)]
> View(var1)
> var1
# A tibble: 500 x 7
   `Page total lik… `Post Weekday` `Post Hour`  Paid `Lifetime Post … `Lifetime Post …
              <dbl>          <dbl>       <dbl> <dbl>            <dbl>            <dbl>
 1           139441              4           3     0             2752             5091
 2           139441              3          10     0            10460            19057
 3           139441              3           3     0             2413             4373
 4           139441              2          10     1            50128            87991
 5           139441              2           3     0             7244            13594
 6           139441              1           9     0            10472            20849
 7           139441              1           3     1            11692            19479
 8           139441              7           9     1            13720            24137
 9           139441              7           3     0            11844            22538
10           139441              6          10     0             4694             8668
# … with 490 more rows, and 1 more variable: `Lifetime Engaged Users` <dbl>
…
3                             5133
4                             4896
5                            42334
6                             5590
7                             5133
8                             4896
9                            42334
10                            5590
11                            5133
12                            4896
> #sort data
> s1 <- dataset_Facebook[order(dataset_Facebook$comment),]
> View(s1)
> s1
# A tibble: 500 x 19
   `Page total lik… Type  Category `Post Month` `Post Weekday` `Post Hour`  Paid
              <dbl> <chr>    <dbl>        <dbl>          <dbl>       <dbl> <dbl>
 1           139441 Photo        3           12              3           3     0
 2           139441 Photo        3           12              7           9     1
 3           139441 Stat…        2           12              7           3     0
 4           139441 Stat…        2           12              5          10     0
 5           139441 Photo        2           12              5          10     0
 6           139441 Photo        2           12              5          10     0
 7           138414 Photo        3           12              1          11     0
 8           138414 Photo        1           12              7          10     0
 9           138414 Link         1           12              7          10     0
10           138414 Photo        3           12              7           3     0
# … with 490 more rows, and 12 more variables: `Lifetime Post Total Reach` <dbl>,
#   `Lifetime Post Total Impressions` <dbl>, `Lifetime Engaged Users` <dbl>,
#   `Lifetime Post Consumers` <dbl>, `Lifetime Post Consumptions` <dbl>, `Lifetime
#   Post Impressions by people who have liked your Page` <dbl>, `Lifetime Post reach
#   by people who like your Page` <dbl>, `Lifetime People who have liked your Page
#   and engaged with your post` <dbl>, comment <dbl>, like <dbl>, share <dbl>, `Total
#   Interactions` <dbl>
> s2 <- dataset_Facebook[order(dataset_Facebook$comment, -dataset_Facebook$share),]
> View(s2)
> s2
# A tibble: 500 x 19
   `Page total lik… Type  Category `Post Month` `Post Weekday` `Post Hour`  Paid
              <dbl> <chr>    <dbl>        <dbl>          <dbl>       <dbl> <dbl>
 1           139441 Stat…        2           12              7           3     0
 2           111620 Photo        3            4              4           7     1
 3            93470 Photo        1            2              5          12     0
 4            81370 Photo        2            1              4           4    NA
 5           136013 Stat…        2           10              5           3     0
 6           138414 Photo        3           12              7           3     0
 7            81370 Photo        2            1              5           8     0
 8           125612 Photo        1            6              2          13     0
 9           131630 Photo        3            7              2          13     0
10           119198 Photo        3            5              2           1     0
# … with 490 more rows, and 12 more variables: `Lifetime Post Total Reach` <dbl>,
#   `Lifetime Post Total Impressions` <dbl>, `Lifetime Engaged Users` <dbl>,
#   `Lifetime Post Consumers` <dbl>, `Lifetime Post Consumptions` <dbl>, `Lifetime
#   Post Impressions by people who have liked your Page` <dbl>, `Lifetime Post reach
#   by people who like your Page` <dbl>, `Lifetime People who have liked your Page
#   and engaged with your post` <dbl>, comment <dbl>, like <dbl>, share <dbl>, `Total
#   Interactions` <dbl>
…
