…
     X1     u     x
  <dbl> <dbl> <dbl>
1     1   138   143
2     2    93   104
3     3    61    69
4     4   179   260
5     5    48    75
6     6    37    63
> # select variables 
> myvars <- c("u", "x")
> # select variables 
> myvars <- c("u", "x")
> new_data <- population[myvars] 
> new_data
# A tibble: 49 x 2
       u     x
   <dbl> <dbl>
 1   138   143
 2    93   104
 3    61    69
 4   179   260
 5    48    75
 6    37    63
 7    29    50
 8    23    48
 9    30   111
10     2    50
# … with 39 more rows
>  var1 <- population[c(1)]
> var1
# A tibble: 49 x 1
      X1
   <dbl>
 1     1
 2     2
 3     3
 4     4
 5     5
 6     6
 7     7
 8     8
 9     9
10    10
# … with 39 more rows
…
> #sort data
> s1 <- population[order(population$x),]
> s2 <- population[order(population$x, -population$u),]
> s1
# A tibble: 49 x 3
      X1     u     x
   <dbl> <dbl> <dbl>
 1    32    36    46
 2     8    23    48
 3     7    29    50
 4    10     2    50
 5    47    43    50
 6    11    38    52
 7    12    46    53
 8    33    45    53
 9    49    36    54
10    14    25    57
# … with 39 more rows
> s2 <- population[order(population$x, -population$u),]
> s2
# A tibble: 49 x 3
      X1     u     x
   <dbl> <dbl> <dbl>
 1    32    36    46
 2     8    23    48
 3    47    43    50
 4     7    29    50
 5    10     2    50
 6    11    38    52
 7    12    46    53
 8    33    45    53
 9    49    36    54
10    22    60    57
# … with 39 more rows
> # Transposing Data (reversing rows and columns)
> temp <- population[1:2]
> temp
# A tibble: 49 x 2
      X1     u
   <dbl> <dbl>
 1     1   138
 2     2    93
 3     3    61
 4     4   179
 5     5    48
 6     6    37
 7     7    29
 8     8    23
 9     9    30
10    10     2
# … with 39 more rows
…
